…
<div class="layout-chunk" data-layout="l-body">
<div class="sourceCode"><pre class="sourceCode r"><code class="sourceCode r"><span><span class='kw'><a href='https://rdrr.io/r/base/library.html'>library</a></span><span class='op'>(</span><span class='va'><a href='https://tidyverse.tidyverse.org'>tidyverse</a></span><span class='op'>)</span></span>
<span><span class='kw'><a href='https://rdrr.io/r/base/library.html'>library</a></span><span class='op'>(</span><span class='va'><a href='https://github.com/tidymodels/infer'>infer</a></span><span class='op'>)</span></span>
<span><span class='kw'><a href='https://rdrr.io/r/base/library.html'>library</a></span><span class='op'>(</span><span class='va'><a href='https://broom.tidymodels.org/'>broom</a></span><span class='op'>)</span></span>
<span></span>
<span><span class='va'>X2024_Brexit_Results</span> <span class='op'>&lt;-</span> <span class='fu'><a href='https://readr.tidyverse.org/reference/read_delim.html'>read_csv</a></span><span class='op'>(</span><span class='st'>"data/2024_Brexit_Results.csv"</span><span class='op'>)</span></span>
<span></span>
<span><span class='va'>HoC_GE2024_results_by_constituency</span> <span class='op'>&lt;-</span> <span class='fu'><a href='https://readr.tidyverse.org/reference/read_delim.html'>read_csv</a></span><span class='op'>(</span><span class='st'>"data/HoC-GE2024-results-by-constituency.csv"</span><span class='op'>)</span></span>
<span></span>
<span><span class='va'>UK_election_results</span> <span class='op'>&lt;-</span> <span class='va'>HoC_GE2024_results_by_constituency</span></span>
<span></span>
<span><span class='va'>UK_election_results</span></span></code></pre></div>

```
# A tibble: 650 × 32
   `ONS ID`  `ONS region ID` `Constituency name`         `County name`
   <chr>     <chr>           <chr>                       <lgl>        
 1 W07000081 W92000004       Aberafan Maesteg            NA           
 2 S14000060 S92000003       Aberdeen North              NA           
 3 S14000061 S92000003       Aberdeen South              NA           
 4 S14000062 S92000003       Aberdeenshire North and Mo… NA           
 5 S14000063 S92000003       Airdrie and Shotts          NA           
 6 E14001063 E12000008       Aldershot                   NA           
 7 E14001064 E12000005       Aldridge-Brownhills         NA           
 8 S14000064 S92000003       Alloa and Grangemouth       NA           
 9 E14001065 E12000002       Altrincham and Sale West    NA           
10 W07000082 W92000004       Alyn and Deeside            NA           
# ℹ 640 more rows
# ℹ 28 more variables: `Region name` <chr>, `Country name` <chr>,
#   `Constituency type` <chr>, `Declaration time` <lgl>,
#   `Member first name` <chr>, `Member surname` <chr>,
#   `Member gender` <chr>, Result <chr>, `First party` <chr>,
#   `Second party` <chr>, Electorate <dbl>, `Valid votes` <dbl>,
#   `Invalid votes` <dbl>, Majority <dbl>, Con <dbl>, Lab <dbl>, …
```
…
